CipherString = @SECLEVEL=2:kGOST:-kPSK:-kDHEPSK:-kECDHEPSK:-kRSAPSK:-kEECDH:-kRSA:-aRSA:-aDSS:-AES256:-AES128:-CHACHA20-POLY1305:-SHA256:-3DES:!DES:!RC4:!RC2:!IDEA:-SEED:!eNULL:!aNULL:-AESCCM:-SHA1:!MD5:-SHA384:-CAMELLIA:-ARIA:-AESCCM8
Ciphersuites = GOST2012-GOST8912-GOST8912
MinProtocol = TLSv1
MaxProtocol = TLSv1.3
SignatureAlgorithms = 